[
  {
    "description": "Bump version of the cloud-sdk image to 404-slim and kubectl to 1.25.2.",
    "type": "minor"
  },
  {
    "description": "Internal maintenance: update community link.",
    "type": "patch"
  },
  {
    "description": "Internal maintenance: update requirements.",
    "type": "patch"
  }
]